[gd_resource type="Environment" load_steps=3 format=2]

[ext_resource path="res://Assets/Skyboxes/moonlight.png" type="Texture" id=1]

[sub_resource type="PanoramaSky" id=1]
panorama = ExtResource( 1 )

[resource]
background_mode = 2
background_sky = SubResource( 1 )
background_color = Color( 1, 1, 1, 1 )
fog_enabled = true
fog_color = Color( 0.129412, 0.129412, 0.129412, 1 )
fog_depth_enabled = false
